Lab 7 - Unsupervised Learning – Pattern Mining
…
1. Load & Cleanse Data

spotify <- read_excel(paste0(path, "spotify_dataset-1.xlsx"))
structure(spotify)

# A tibble: 1,048,575 × 4
   user_id                          artist                        track playlist
   <chr>                            <chr>                         <chr> <chr>   
 1 9cc0cfd4d7d7885102480dd99e7a90d6 Elvis Costello                (The… HARD RO…
 2 9cc0cfd4d7d7885102480dd99e7a90d6 Elvis Costello & The Attract… (Wha… HARD RO…
 3 9cc0cfd4d7d7885102480dd99e7a90d6 Tiffany Page                  7 Ye… HARD RO…
 4 9cc0cfd4d7d7885102480dd99e7a90d6 Elvis Costello & The Attract… Acci… HARD RO…
 5 9cc0cfd4d7d7885102480dd99e7a90d6 Elvis Costello                Alis… HARD RO…
 6 9cc0cfd4d7d7885102480dd99e7a90d6 Lissie                        All … HARD RO…
 7 9cc0cfd4d7d7885102480dd99e7a90d6 Paul McCartney                Band… HARD RO…
 8 9cc0cfd4d7d7885102480dd99e7a90d6 Joe Echo                      Beau… HARD RO…
 9 9cc0cfd4d7d7885102480dd99e7a90d6 Paul McCartney                Blac… HARD RO…
10 9cc0cfd4d7d7885102480dd99e7a90d6 Lissie                        Brig… HARD RO…
# ℹ 1,048,565 more rows
…
